{
  "page": 2,
  "per_page": 6,
  "total": 12,
  "total_pages": 2,
  "data": [
    {
      "id": 7,
      "email": "michael.lawson@reqres.in",
      "first_name": "Michael",
      "last_name": "Lawson",
      "last_message": "How are you doing today?",
      "time_ago": "3 min Ago",
      "unseen_count": 3,
      "avatar": "https://reqres.in/img/faces/7-image.jpg"
    },
    {
      "id": 8,
      "email": "lindsay.ferguson@reqres.in",
      "first_name": "Lindsay",
      "last_name": "Ferguson",
      "last_message": "Hello",
      "time_ago": "2 min Ago",
      "unseen_count": 5,
      "avatar": "https://reqres.in/img/faces/8-image.jpg"
    },
    {
      "id": 9,
      "email": "tobias.funke@reqres.in",
      "first_name": "Tobias",
      "last_name": "Funke",
      "last_message": "How are you doing today?",
      "time_ago": "3 min Ago",
      "unseen_count": 3,
      "avatar": "https://reqres.in/img/faces/9-image.jpg"
    },
    {
      "id": 10,
      "email": "byron.fields@reqres.in",
      "first_name": "Byron",
      "last_name": "Fields",
      "last_message": "How was your day?",
      "time_ago": "5 min Ago",
      "unseen_count": 6,
      "avatar": "https://reqres.in/img/faces/10-image.jpg"
    },
    {
      "id": 11,
      "email": "george.edwards@reqres.in",
      "first_name": "George",
      "last_name": "Edwards",
      "last_message": "Happy?",
      "time_ago": "4 min Ago",
      "unseen_count": 2,
      "avatar": "https://reqres.in/img/faces/11-image.jpg"
    },
    {
      "id": 12,
      "email": "rachel.howell@reqres.in",
      "first_name": "Rachel",
      "last_name": "Howell",
      "last_message": "How are you , fine?",
      "time_ago": "2 min Ago",
      "unseen_count": 5,
      "avatar": "https://reqres.in/img/faces/12-image.jpg"
    },
    {
      "id": 8,
      "email": "lindsay.ferguson@reqres.in",
      "first_name": "Lindsay",
      "last_name": "Ferguson",
      "last_message": "Hello",
      "time_ago": "2 min Ago",
      "unseen_count": 5,
      "avatar": "https://reqres.in/img/faces/8-image.jpg"
    },
    {
      "id": 9,
      "email": "tobias.funke@reqres.in",
      "first_name": "Tobias",
      "last_name": "Funke",
      "last_message": "How are you doing today?",
      "time_ago": "3 min Ago",
      "unseen_count": 3,
      "avatar": "https://reqres.in/img/faces/9-image.jpg"
    },
    {
      "id": 10,
      "email": "byron.fields@reqres.in",
      "first_name": "Byron",
      "last_name": "Fields",
      "last_message": "How was your day?",
      "time_ago": "5 min Ago",
      "unseen_count": 6,
      "avatar": "https://reqres.in/img/faces/10-image.jpg"
    },
    {
      "id": 11,
      "email": "george.edwards@reqres.in",
      "first_name": "George",
      "last_name": "Edwards",
      "last_message": "Happy?",
      "time_ago": "4 min Ago",
      "unseen_count": 2,
      "avatar": "https://reqres.in/img/faces/11-image.jpg"
    }
  ],
  "support": {
    "url": "https://reqres.in/#support-heading",
    "text": "To keep ReqRes free, contributions towards server costs are appreciated!"
  }
}